; Engine configuration file.
; It's best edited using the editor UI and not directly,
; since the parameters that go here are not all obvious.
;
; Format:
;   [section] ; section goes between []
;   param=value ; assign values to parameters

config_version=4

[application]

config/name="Godot-docker-practice"
run/main_scene="res://main.tscn"
config/icon="res://icon.png"

[autoload]

LobbyNm="*res://scripts/Lobby_NM.gd"
ManagerNm="*res://scripts/Manager_NM.gd"

[display]

window/size/width=1920
window/size/height=1080

[physics]

common/enable_pause_aware_picking=true

[rendering]

environment/default_environment="res://default_env.tres"
